{
    // Use IntelliSense to learn about possible attributes.
    // Hover to view descriptions of existing attributes.
    // For more information, visit: https://go.microsoft.com/fwlink/?linkid=830387
    "version": "0.2.0",
    "configurations": [
        {
            "type": "gdb",
            "request": "launch",
            "name": "Launch Program",
            "target": "/mnt/builddocker/debug/app/daisiaccel_app_solver",
            "cwd": "${workspaceRoot}",
            "valuesFormatting": "parseText",
            "arguments": "/mnt/daisiaccel/app/config.json",
            "externalConsole": true,
        },
        {
            "name": "(gdb) Attach",
            "type": "cppdbg",
            "request": "attach",
            "program": "/mnt/builddocker/debug/app/daisiaccel_app_solver",
            "processId": "${command:pickProcess}",
            "MIMode": "gdb",
            "setupCommands": [
                {
                    "description": "Enable pretty-printing for gdb",
                    "text": "-enable-pretty-printing",
                    "ignoreFailures": true
                }
            ]
        },
        {
            "name": "(gdb) Pipe Launch",
            "type": "cppdbg",
            "request": "launch",
            "program": "/mnt/builddocker/debug/app/daisiaccel_app_solver",
            "args": ["/mnt/builddocker/debug/app/config.json"],
            "stopAtEntry": false,
            "cwd": "/mnt/daisiaccel",
            "environment": [],
            "externalConsole": true,
            "pipeTransport": {
                "debuggerPath": "/usr/bin/gdb",
                "pipeProgram": "docker",
                "pipeArgs": [
                    "exec",
                    "-i",
                    "daisi_build_container",
                    "sh",
                    "-c"
                ],
                "pipeCwd": "${workspaceRoot}"
            },
            "MIMode": "gdb",
            "setupCommands": [
                {
                    "description": "Enable pretty-printing for gdb",
                    "text": "-enable-pretty-printing",
                    "ignoreFailures": true
                }
            ],
            "sourceFileMap": {
                "/mnt/daisiaccel": "${workspaceFolder}"
            }
        },
        {
            "name": "(gdb) Launch",
            "type": "cppdbg",
            "request": "launch",
            "program": "/mnt/builddocker/debug/app/daisiaccel_app_solver",
            "args": [
                "/mnt/daisiaccel/app/config.json"
            ],
            "stopAtEntry": false,
            "cwd": "${workspaceFolder}",
            "environment": [],
            "externalConsole": true,
            "MIMode": "gdb",
            "setupCommands": [
                {
                    "description": "Enable pretty-printing for gdb",
                    "text": "-enable-pretty-printing",
                    "ignoreFailures": true
                }
            ]
        }
    ]
}